<?xml version="1.0" encoding="utf-8"?>
<!-- Generator: Adobe Illustrator 22.1.0, SVG Export Plug-In . SVG Version: 6.00 Build 0)  -->
<svg version="1.1" xmlns="http://www.w3.org/2000/svg" xmlns:xlink="http://www.w3.org/1999/xlink" x="0px" y="0px"
	 viewBox="0 0 297.6 419.5" style="enable-background:new 0 0 297.6 419.5;" xml:space="preserve">
<style type="text/css">
	.st0{display:none;}
	.st1{fill-rule:evenodd;clip-rule:evenodd;fill:#0066AD;}
</style>
<g id="Layer_1">
</g>
<g id="Layer_2">
</g>
<g id="Desktop">
</g>
<g id="Guides">
</g>
<g id="Grid" class="st0">
</g>
<g id="Page_1">
	<g id="Layer_1_1_">
	</g>
	<g id="Layer_2_1_">
		<path class="st1" d="M151.3,123.5c42.5,0,77.2,34.7,77.2,77.2s-34.7,77.2-77.2,77.2s-77.2-34.7-77.2-77.2S108.8,123.5,151.3,123.5
			L151.3,123.5z M193.8,233c-0.7-0.5-1.3-1.3-1.7-2.1h-2.9c0.1,1.3,0.1,2.9-0.2,4.4h3.8C193.1,234.5,193.5,233.7,193.8,233
			L193.8,233z M191.3,228.5c-0.3-1.5-0.4-3.1-0.4-4.4h-3.4c0.8,2.1,1.2,3.3,1.2,3.3l0.1,0.2c0,0,0.1,0.3,0.1,0.9H191.3L191.3,228.5z
			 M191.1,221.8c0.1-1.3,0.1-2.7-0.3-4.4h-5.7c0.6,1.6,1.1,3.1,1.6,4.4H191.1L191.1,221.8z M190.1,215c-0.1-0.3-0.2-0.7-0.4-1
			c-0.4-0.9-0.9-2.1-1.5-3.4c-1.1,0-2.2,0-3.2,0h-2.3c0.6,1.5,1.1,3,1.6,4.4H190.1L190.1,215z M187.2,208.3
			c-0.4-0.8-0.8-1.7-1.2-2.5c-0.3-0.6-0.6-1.3-0.9-1.9c-1,0-1.9,0-2.9,0h-2c0.5,1.5,1.1,3,1.6,4.4h3.2
			C185.7,208.3,186.4,208.3,187.2,208.3L187.2,208.3z M184,201.6c-0.8-1.7-1.5-3.2-1.9-4.4h-4.3c0.5,1.5,1.1,2.9,1.6,4.4h2.8
			C182.8,201.6,183.4,201.6,184,201.6L184,201.6z M181.4,194.8c0.1-1.2,0.7-3,1.5-4.4h-7.6c0.5,1.4,1,2.9,1.6,4.4H181.4L181.4,194.8
			z M186.6,190.5c-0.1,0-0.2,0-0.3-0.1c-0.2,0.2-0.3,0.4-0.5,0.7c-0.9,1.3-1.8,3.1-1.6,3.7c0.4,1.5,2.4,5.6,4.3,9.8
			c1.5,3.2,3,6.4,3.8,8.4c2,5,1.8,7.9,1.5,10.7c-0.1,1.4,0,3.5,0.5,5.1c0.2,0.6,0.5,1.2,0.8,1.6c0.2-0.3,0.4-0.7,0.6-1l0.5-0.9
			c0.1-0.2,0.2-0.4,0.3-0.6c0.6-1,1.2-1.8,1.6-2.7c0.3-0.6,0.6-1.2,1-1.9l0.8-1.7c0.4-0.9,0.8-1.8,1.1-2.6c0.1-0.4,1.1-2.8,1-3.2
			c0.4-2.2-0.7-4.2-1.8-6.3c-1.3-1.7-8.3-10.9-9.2-11.9c-0.9-0.9-0.9-2.7-0.8-4.1c-0.1,0-0.2-0.1-0.3-0.1c-0.8-0.4-1.7-1.2-2.3-2
			C187.6,191.4,187.1,191,186.6,190.5L186.6,190.5z M193.3,193c-0.1,0.5-0.3,1.2-0.3,1.8h9.2v-4.4h-7.7c-0.1,0.7-0.3,1.3-0.5,1.7
			C193.7,192.5,193.5,192.8,193.3,193L193.3,193z M194.2,197.1c0.9,1.1,2.2,2.7,3.5,4.4c0.8,0,1.7,0,2.5,0h2v-4.4H194.2L194.2,197.1
			z M199.4,203.9c1.1,1.5,2.1,2.8,2.7,3.6v-3.6h-2C199.9,203.9,199.7,203.9,199.4,203.9L199.4,203.9z M191,191
			c0.1-0.2,0.3-0.3,0.5-0.4c0.3-0.9,0.5-2.5,0.3-5c0,0,0-0.1,0-0.1c0,0,0.3-8.4,6.3-8.4c5.9,0,6.8,8.3,6.8,8.3c0,0,0,0.2,0,0.2v30.2
			c0,1-0.5,2.7-1.2,4.5c-0.8,2.1-2,4.5-3,6.5c-0.5,0.9-1.1,1.8-1.7,2.8c-1.9,3-4.1,6.6-4.1,10.1c0,1.8,1.1,5,2.5,8.3
			c1,2.5,2.2,5,3.3,7.1c3-2.7,5.8-5.7,8.3-8.8c0.2-9.1,0.7-24.2,1-37.5c0.4-13.9,0.7-25.8,0.7-26.5c0-0.8-0.4-2-1-3.3
			c-0.7-1.3-1.6-2.7-2.7-3.9c0,0-0.4-0.4-0.8-0.9c-2.1-2.4-4.6-5.2-6.9-5.2c-1.5,0-2.8,0-4.1,0.4c-1.3,0.4-2.7,1.1-4.6,2.6
			c-1.8,1.5-3.2,3.3-4,5.3c-0.8,2-1.1,4.1-0.7,6.2c0.7,4.1,3.8,6.2,3.8,6.2c0,0,0.3,0.3,0.4,0.4C190.3,190.4,190.7,190.8,191,191
			L191,191z M136,226.9l6.8-21c0,0,1.4-3.8,4.4-3.8s19.6,0,19.6,0s3.8,0.5,4.9,2.7c1.1,2.2,8.4,21.8,8.4,21.8s1.4,6.3-3.5,6.3
			s-21.5,0-21.5,0l-0.7,4.7c0.2,0.1,0.3,0.2,0.4,0.2v-0.6h29.5c3.5,0,2.1-8,1.9-8.9c-0.9-2.5-16.9-46.4-18.2-50.3
			c-1.4-4.3-2-11.2-2-11.2v-0.1c0-0.1-0.4-19.6,0-21.4c0.1-0.3-0.7-0.8-1.1-1h-17.7c-0.8,0-0.8,1.6-0.8,1.6v0.1c0,0-0.5,11.2-0.5,16
			c0,5.2-2.6,10.7-2.6,10.7l0,0l-22.8,51c1.2,0.1,2.6,0.3,4.2,0.6l10.1-23.3c0.9-2,3.4-0.9,2.6,1.1l-9.8,22.8
			c0.4,0.1,0.8,0.3,1.2,0.4c1.3,0.4,3.6,1.5,6.4,2.8L136,226.9L136,226.9z M81.5,223.6h36l2.8-6.2H100c-6.7,0-13.5,0-20.2,0
			C80.3,219.5,80.9,221.5,81.5,223.6L81.5,223.6z M158.8,240c0.5,0.4,1.3,1.1,1.7,2h16.2c5.2,0,10.5,0,15.7,0
			c-0.2-0.9-0.3-1.7-0.3-2.4c0-0.7,0.1-1.4,0.2-2h-4c-0.8,1.4-2,2.4-4,2.4H158.8L158.8,240z M160.5,244.4c-0.3,0.8-1,1.6-2.3,2.4
			c-0.8,0.5-2.3,1.2-4,2h18.2c7.4,0,14.9,0,22.3,0c-0.6-1.5-1.2-3-1.7-4.4c-5.5,0-10.9,0-16.4,0H160.5L160.5,244.4z M148.9,251.1
			c-4,1.7-8.2,3.4-10.8,4.4c0.8,0,1.6,0,2.4,0h57.2c-0.7-1.3-1.4-2.9-2.1-4.4c-7.8,0-15.5,0-23.3,0H148.9L148.9,251.1z M101.7,254.8
			h23.4c5.2,0,9.2-0.9,9.8-1c1.3-0.5,18.3-7.2,21.8-9.4c1.7-1.1,0.3-2.2,0-2.4c-1.4-0.7-24-12.3-29-14c-4.9-1.7-10.1-1.6-10.1-1.6
			H82.5C86.6,237.3,93.3,247,101.7,254.8L101.7,254.8z M197.4,257.9h-56.8c-11.8,0-23.5,0-35.3,0c1.9,1.6,4,3,6.1,4.4h80
			C193.4,260.9,195.5,259.4,197.4,257.9L197.4,257.9z M79.3,215c6.9,0,13.8,0,20.7,0h21.3l2-4.4h-22.3c-7.5,0-14.9,0-22.4,0
			C78.8,212.1,79,213.6,79.3,215L79.3,215z M78.3,208.3c7.6,0,15.1,0,22.7,0h23.4l2-4.4h-10.2c-0.2,0.2-0.3,0.4-0.4,0.6
			c-3.3,4.6-5.4,0.2-5.6-0.2c0-0.1-0.1-0.2-0.2-0.3c-5.5,0-11,0-16.5,0H77.9C78,205.4,78.1,206.8,78.3,208.3L78.3,208.3z
			 M77.9,201.6h15.6c5.1,0,10.1,0,15.2,0c-0.7-1.2-1.5-2.8-2.4-4.4c-4.8,0-9.7,0-14.5,0H78c-0.1,1.2-0.1,2.4-0.1,3.6
			C77.9,201,77.9,201.3,77.9,201.6L77.9,201.6z M78.1,194.8h13.5c4.4,0,8.8,0,13.2,0c-0.8-1.5-1.7-3-2.5-4.4c-4.1,0-8.2,0-12.3,0
			H78.6C78.4,191.9,78.2,193.3,78.1,194.8L78.1,194.8z M79,188.1h11.1c3.6,0,7.3,0,10.9,0c-1.1-1.9-2-3.3-2.2-3.6
			c-0.2-0.2-0.4-0.5-0.6-0.8h-9.5c-2.9,0-5.9,0-8.8,0C79.5,185.1,79.2,186.6,79,188.1L79,188.1z M80.5,181.3c2.7,0,5.5,0,8.2,0h8.4
			c-0.4-1.1-0.6-2.1-0.6-2.1l0-0.3v-2c-2.5,0-4.9,0-7.4,0h-7.2C81.4,178.4,80.9,179.8,80.5,181.3L80.5,181.3z M82.7,174.6H89
			c2.5,0,4.9,0,7.4,0v-4.4c-2,0-4,0-6,0h-5.9C83.9,171.6,83.3,173.1,82.7,174.6L82.7,174.6z M85.7,167.8h4.7c2,0,4,0,6,0v-4.4
			c-1.4,0-2.8,0-4.2,0h-4.1C87.2,164.9,86.4,166.3,85.7,167.8L85.7,167.8z M89.5,161.1h2.7c1.4,0,2.8,0,4.2,0v-4.4
			c-0.6,0-1.3,0-1.9,0h-1.9C91.5,158.1,90.5,159.6,89.5,161.1L89.5,161.1z M94.4,154.3L94.4,154.3c0.7,0,1.3,0,2,0V152
			C95.7,152.8,95.1,153.6,94.4,154.3L94.4,154.3z M112.8,138.2v2.6h6.8v-4.4h-3.7C114.8,137,113.8,137.6,112.8,138.2L112.8,138.2z
			 M170.1,129.7h-36.6c0,1.3-0.1,2.8-0.1,4.4h48.9C178.3,132.3,174.3,130.8,170.1,129.7L170.1,129.7z M186.8,136.4h-53.5
			c0,1.4-0.1,2.9-0.1,4.4h60.6C191.6,139.2,189.2,137.8,186.8,136.4L186.8,136.4z M196.9,143.2h-29.1c0.7,0.7,1.2,1.7,0.8,2.9
			c-0.1,0.2-0.1,0.7-0.1,1.5l33.4,0C200.3,146,198.7,144.6,196.9,143.2L196.9,143.2z M204.3,149.9l-35.8,0c0,1.3,0,2.8,0,4.4
			c13.2,0,26.4,0,39.7,0C207,152.8,205.7,151.3,204.3,149.9L204.3,149.9z M210,156.7c-13.8,0-27.7,0-41.5,0c0,1.5,0,3,0.1,4.4
			l44.5,0C212.1,159.6,211.1,158.1,210,156.7L210,156.7z M214.6,163.4l-45.9,0c0,1.8,0.1,3.1,0.1,3.2v-0.1c0,0,0,0.5,0.1,1.2h22.6
			c1.1-0.6,2-1,3-1.3c1.7-0.5,3.1-0.5,4.8-0.5c1.6,0,3.2,0.7,4.5,1.8l13.2,0C216.2,166.3,215.4,164.9,214.6,163.4L214.6,163.4z
			 M218.1,170.2l-11.8,0c0.6,0.7,1.3,1.4,1.9,2.1c0.1,0.2,0.3,0.3,0.8,0.9c0.4,0.5,0.8,1,1.2,1.5h5.7c1.4,0,2.7,0,4.1,0
			C219.4,173.1,218.8,171.6,218.1,170.2L218.1,170.2z M220.8,176.9c-1.7,0-3.3,0-5,0h-4.2c0.1,0.2,0.3,0.5,0.4,0.7
			c0.7,1.3,1.1,2.6,1.3,3.7l4.9,0c1.3,0,2.6,0,4,0C221.8,179.8,221.3,178.4,220.8,176.9L220.8,176.9z M222.8,183.7c-1.5,0-3,0-4.6,0
			l-4.8,0c0,1-0.1,2.5-0.1,4.4l5.5,0c1.6,0,3.2,0,4.9,0C223.4,186.6,223.1,185.1,222.8,183.7L222.8,183.7z M224,190.4
			c-1.7,0-3.5,0-5.2,0l-5.6,0c0,1.3-0.1,2.8-0.1,4.4l6,0c1.8,0,3.6,0,5.5,0C224.4,193.3,224.3,191.9,224,190.4L224,190.4z
			 M224.7,197.1c-1.9,0-3.7,0-5.6,0l-6,0c0,1.4-0.1,2.9-0.1,4.4c3.9,0,7.9,0,11.8,0c0-0.3,0-0.6,0-0.8
			C224.8,199.5,224.7,198.3,224.7,197.1L224.7,197.1z M224.7,203.9c-3.9,0-7.9,0-11.8,0c0,1.4-0.1,2.9-0.1,4.4c3.9,0,7.8,0,11.6,0
			C224.5,206.8,224.6,205.4,224.7,203.9L224.7,203.9z M224.1,210.6c-3.8,0-7.6,0-11.4,0c0,1.5-0.1,2.9-0.1,4.4c1.8,0,3.7,0,5.5,0
			h5.3C223.7,213.6,223.9,212.1,224.1,210.6L224.1,210.6z M222.9,217.4h-4.8c-1.9,0-3.7,0-5.6,0c0,1.5-0.1,2.9-0.1,4.4
			c1.6,0,3.2,0,4.7,0h4.6C222.1,220.3,222.5,218.9,222.9,217.4L222.9,217.4z M220.9,224.1h-3.8c-1.6,0-3.2,0-4.8,0
			c0,1.5-0.1,3-0.1,4.4c1.2,0,2.4,0,3.6,0h3.5C219.9,227.1,220.4,225.6,220.9,224.1L220.9,224.1z M218.3,230.9h-2.5
			c-1.2,0-2.4,0-3.7,0c0,1.5-0.1,3-0.1,4.4c0.7,0,1.4,0,2.1,0h2C216.9,233.8,217.6,232.4,218.3,230.9L218.3,230.9z M214.8,237.6
			h-0.7c-0.7,0-1.4,0-2.1,0c0,1.5-0.1,3-0.1,4.4c0,0,0.1,0,0.1,0h0.1C213,240.6,213.9,239.1,214.8,237.6L214.8,237.6z M202.2,188.1
			v-2.5c0-0.3-0.1-1-0.4-1.9h-6.9c-0.2,0.8-0.2,1.6-0.2,1.8c0.1,1,0.1,1.9,0,2.6H202.2L202.2,188.1z M200.7,181.3
			c-0.6-0.9-1.4-1.5-2.6-1.5c-1.1,0-1.9,0.7-2.4,1.5H200.7L200.7,181.3z M184.7,188.1c-0.7-1.2-1.3-2.6-1.6-4.3c0,0,0-0.1,0-0.1
			h-10.2c0.5,1.3,1,2.8,1.6,4.4H184.7L184.7,188.1z M182.9,181.3c0-1.5,0.3-3,0.7-4.4h-13.2c0,0.1,0,0.1,0.1,0.2
			c0.2,0.6,0.7,2.1,1.5,4.2H182.9L182.9,181.3z M184.7,174.6c0.9-1.6,2.1-3.1,3.5-4.4h-19.1c0.2,1.4,0.4,2.9,0.8,4.4H184.7
			L184.7,174.6z M112.8,143.2v4.4h6.8v-4.4H112.8L112.8,143.2z M112.8,149.9v4.4h6.8v-4.4H112.8L112.8,149.9z M112.8,156.7v4.4h6.8
			v-4.4H112.8L112.8,156.7z M112.8,163.4v4.4h6.8v-4.4H112.8L112.8,163.4z M113,170.2c0.3,1.1,1.1,2.5,3,2.5c1.8,0,2.7-1.4,3.2-2.5
			H113L113,170.2z M133.2,143.2c0,1.4,0,2.9-0.1,4.4h10.4c0-1,0.1-1.7,0.1-1.7v0.1c0,0,0-1.5,0.7-2.8H133.2L133.2,143.2z
			 M133.1,149.9c0,1.5,0,2.9-0.1,4.4h10.2c0.1-1.6,0.1-3.1,0.2-4.4H133.1L133.1,149.9z M133,156.7c0,1.5,0,3,0,4.4h10.1
			c0-1.3,0.1-2.8,0.1-4.4H133L133,156.7z M132.9,163.4c0,1.6,0,3.1,0,4.4h9.2c0.4-1.3,0.7-2.8,0.9-4.4H132.9L132.9,163.4z
			 M132.9,170.2c0,1.9,0,3.4,0.1,4.4h6.4l1.4-3l0,0c0,0,0.2-0.5,0.6-1.3H132.9L132.9,170.2z M133.2,176.9c0.1,1.6-0.7,3.3-1.3,4.4
			c0.5,0,1,0,1.5,0h2.9l2-4.4H133.2L133.2,176.9z M130.4,183.7c-0.7,0.9-1.8,2.5-3.1,4.4h2.3c1.3,0,2.5,0,3.8,0l2-4.4h-1.9
			C132.4,183.7,131.4,183.7,130.4,183.7L130.4,183.7z M125.6,190.4c-1,1.4-2.1,2.9-3.1,4.4h3.1c1.6,0,3.1,0,4.7,0l2-4.4
			c-0.9,0-1.8,0-2.7,0H125.6L125.6,190.4z M120.9,197.1c-1.2,1.6-2.2,3.2-3.1,4.4h9.6l2-4.4c-1.2,0-2.4,0-3.6,0H120.9L120.9,197.1z
			 M187.5,264.6h-72.4c2.9,1.7,6,3.1,9.2,4.4h54C181.5,267.7,184.6,266.3,187.5,264.6L187.5,264.6z M171.5,271.3h-40.3
			c6.4,1.8,13.2,2.8,20.2,2.8S165.1,273.2,171.5,271.3L171.5,271.3z M164.6,144.2C164.6,144.2,164.6,144.2,164.6,144.2L164.6,144.2
			L164.6,144.2z M110.1,204.2C110.1,204.2,110.1,204.2,110.1,204.2L110.1,204.2L110.1,204.2z M110.1,204.3L110.1,204.3
			C110.2,204.3,110.1,204.3,110.1,204.3L110.1,204.3z M99.2,149v29.7c0.2,0.7,0.8,3,1.6,3.8c1.3,1.3,11.8,20.4,11.8,20.5l0.1,0.1
			c0,0,0.2,0.5,0.8-0.3c1.9-2.7,15.3-21.7,15.4-21.7l0,0c0,0,2-2.7,1.6-4.4c-0.2-0.9-0.3-6.6-0.2-13.8c0.1-10.7,0.3-24.9,0.5-32.6
			c-2.8,0.8-5.6,1.8-8.3,3v35.7l0,0.2c0,0-1,6.4-6.4,6.4c-5.5,0-6-6.2-6-6.3l0-0.1v-29.1C106.1,142.7,102.5,145.7,99.2,149L99.2,149
			z M202.2,185.6L202.2,185.6C202.2,185.6,202.2,185.6,202.2,185.6L202.2,185.6z M153,87.3c2.2,0,4.3,0.1,6.4,0.3
			c1.9,0.1,4,0.3,6.3,0.6c1,0.1,2,1.3,2,2.3c0,2.4,0.1,5.8,0.2,8.8c0.1,2.1,0.2,3.8,0.4,4.8c0,0,0,0,0,0c0.4,0.2,0.9,0.4,1.5,0.5
			c0.7,0.2,1.4,0.3,2.1,0.4c0.3,0,0.3,0.1,0.3,0.1c0.1,0,0-0.1,0.2-0.3c0.8-1.2,2.1-3.3,3.4-5.6v0c1.3-2.2,2.7-4.7,3.7-6.5
			c0.4-0.8,1.8-1.3,2.7-1.1c2,0.6,4,1.2,6,1.9c1.9,0.7,3.9,1.4,6,2.3c0.9,0.4,1.6,1.8,1.4,2.7c-0.6,2.4-1.4,5.7-2,8.5
			c-0.4,2-0.8,3.7-0.9,4.7c0,0,0,0,0,0c0.3,0.3,0.8,0.6,1.3,0.9c0.6,0.4,1.3,0.7,1.9,0.9c0.3,0.1,0.2,0.2,0.3,0.2
			c0.1,0,0-0.1,0.3-0.3c1.1-1,2.9-2.7,4.8-4.5c1.9-1.9,3.9-3.9,5.2-5.3c0.6-0.6,2.1-0.8,2.9-0.4c1.9,1.1,3.7,2.3,5.4,3.4
			c1.7,1.2,3.4,2.4,5.2,3.7c0.8,0.6,1.1,2.1,0.6,3c-1.2,2.1-2.8,5.1-4.2,7.7c-0.9,1.8-1.7,3.4-2.1,4.3c0,0,0,0,0,0
			c0.2,0.4,0.6,0.8,1,1.2c0.5,0.5,1.1,1,1.6,1.4c0.2,0.2,0.2,0.2,0.2,0.3c0.1,0,0.1-0.1,0.3-0.2c1.3-0.6,3.5-1.8,5.8-3.1
			c2.2-1.3,4.7-2.7,6.4-3.8c0.8-0.5,2.2-0.3,2.9,0.4c1.5,1.5,2.9,3.1,4.3,4.7c1.4,1.6,2.7,3.2,4,4.9c0.6,0.8,0.5,2.3-0.2,3.1
			c-1.7,1.8-4,4.2-6,6.4c-1.4,1.5-2.5,2.8-3.1,3.7c0,0,0,0,0,0c0.1,0.4,0.4,0.9,0.7,1.4c0.4,0.6,0.8,1.2,1.2,1.7
			c0.2,0.2,0.1,0.3,0.2,0.3c0.1,0,0.1-0.1,0.4-0.1c1.4-0.3,3.9-0.9,6.5-1.5c2.6-0.7,5.3-1.4,7.2-2c0.9-0.2,2.2,0.3,2.7,1.1
			c1,1.8,2,3.7,3,5.6c0.9,1.8,1.8,3.7,2.6,5.7c0.4,0.9-0.1,2.4-0.9,2.9c-2.2,1.3-5.2,3.1-7.6,4.6c-1.7,1.1-3.2,2.1-4,2.8
			c0,0,0,0,0,0c0,0.4,0.1,1,0.3,1.6c0.2,0.7,0.5,1.4,0.7,2c0.1,0.3,0,0.3,0.1,0.3c0.1,0,0.1,0,0.4,0h0c1.5,0.1,4.1,0.2,6.7,0.2
			c2.7,0,5.6,0,7.5,0c0.9,0,2.1,0.9,2.3,1.8c0.5,2,1,4.1,1.4,6.1c0.4,2,0.7,4.1,1,6.2c0.1,1-0.7,2.3-1.7,2.6
			c-2.3,0.7-5.6,1.6-8.6,2.6c-2,0.6-3.7,1.2-4.6,1.6c0,0,0,0,0,0c-0.1,0.4-0.1,1-0.1,1.6c0,0.7,0.1,1.5,0.2,2.1c0,0.3-0.1,0.3,0,0.4
			c0,0.1,0.1,0,0.4,0.1c1.3,0.5,3.8,1.2,6.5,1.9c2.8,0.8,5.5,1.5,7.3,1.9c0.9,0.2,1.8,1.4,1.8,2.3c0,2.2-0.1,4.3-0.2,6.3
			c-0.1,2-0.3,4.1-0.6,6.2c-0.1,1-1.3,2-2.3,2.1c-2.4,0-5.9,0.1-9,0.2c-2.1,0.1-3.9,0.2-4.9,0.4c0,0,0,0,0,0
			c-0.2,0.4-0.4,0.9-0.5,1.5c-0.2,0.7-0.3,1.4-0.4,2.1c0,0.3-0.1,0.3-0.1,0.3c0,0.1,0.1,0,0.3,0.2c1.3,0.9,3.5,2.2,5.8,3.6
			c2.3,1.4,4.9,2.8,6.6,3.8c0.8,0.4,1.3,1.8,1.1,2.7c-0.6,2.1-1.2,4-1.9,6c-0.7,2-1.4,4-2.2,5.9c-0.4,0.9-1.8,1.6-2.7,1.4
			c-2.4-0.6-5.8-1.5-8.8-2.1c-2-0.4-3.8-0.8-4.9-0.9c0,0,0,0,0,0c-0.3,0.3-0.6,0.8-0.9,1.3c-0.4,0.6-0.7,1.3-0.9,1.9
			c-0.1,0.3-0.2,0.2-0.2,0.3c0,0.1,0.1,0,0.3,0.3c1,1.2,2.8,3.1,4.7,5c2,2,4,4,5.4,5.3c0.6,0.6,0.8,2.1,0.4,2.9
			c-1.1,1.9-2.2,3.6-3.4,5.3c-1.2,1.8-2.4,3.5-3.7,5.1c-0.6,0.8-2.1,1.1-3,0.6c-1.9-1-4.4-2.4-6.7-3.7c-2.3-1.2-4.5-2.3-5.7-2.8
			c0,0,0,0,0,0c-0.4,0.2-0.8,0.6-1.2,1c-0.5,0.5-1,1.1-1.4,1.6c-0.2,0.2-0.2,0.2-0.3,0.2c0,0.1,0.1,0.1,0.2,0.3
			c0.5,1,1.4,2.7,2.5,4.6c1.5,2.7,3.4,6,4.6,8c0.5,0.8,0.3,2.2-0.4,2.9c-1.5,1.4-3,2.9-4.6,4.3v0c-1.5,1.3-3.1,2.6-4.8,4
			c-0.8,0.6-2.3,0.5-3.1-0.2c-1.7-1.7-4.3-4.1-6.6-6.2c-1.5-1.4-2.9-2.6-3.8-3.2c0,0,0,0,0,0c-0.4,0.1-0.9,0.4-1.5,0.7
			c-0.6,0.4-1.2,0.8-1.7,1.2c-0.2,0.2-0.3,0.1-0.3,0.2c0,0.1,0.1,0.1,0.1,0.4c0.2,1.1,0.7,3,1.2,5.1c0.8,3.3,1.8,6.8,2.4,9
			c0.2,0.9-0.3,2.2-1.1,2.7c-1.8,1-3.7,2-5.6,2.9c-1.8,0.9-3.7,1.7-5.7,2.6c-0.9,0.4-2.4-0.1-2.9-1c-1.1-1.8-2.6-4.4-4-6.6
			c-1.4-2.3-2.8-4.3-3.6-5.3c0,0,0,0,0,0c-0.4,0-1,0.1-1.6,0.3c-0.7,0.2-1.4,0.5-2,0.7c-0.3,0.1-0.3,0-0.3,0.1v0c0,0.1,0,0.1,0,0.4
			v0c-0.1,1.6-0.2,4.3-0.2,7c0,2.8,0,5.8,0,7.6c0,0.9-0.9,2.1-1.8,2.3c-2,0.5-4,1-6.1,1.4c-2,0.4-4.1,0.7-6.2,1
			c-1,0.1-2.3-0.7-2.6-1.7c-0.6-2-1.4-4.9-2.2-7.4c-0.8-2.6-1.6-4.9-2.1-6.1c0,0,0,0,0,0c-0.4-0.1-1-0.1-1.6-0.1
			c-0.7,0-1.5,0.1-2.1,0.2c-0.3,0-0.3-0.1-0.4,0c-0.1,0,0,0.1-0.1,0.4c-0.5,1.3-1.2,4-2,6.7c-0.8,2.9-1.5,5.6-1.9,7.4
			c-0.2,0.9-1.4,1.8-2.3,1.8c-2.2,0-4.3-0.1-6.3-0.3c-1.9-0.1-4-0.3-6.2-0.6c-1-0.1-2-1.3-2-2.3c0-2.4-0.1-6-0.2-9.2
			c-0.1-2.1-0.2-4-0.4-5c0,0,0,0,0,0c-0.4-0.2-0.9-0.4-1.5-0.5c-0.7-0.2-1.4-0.3-2.1-0.4c-0.3,0-0.3-0.1-0.3-0.1
			c-0.1,0,0,0.1-0.2,0.3c-0.7,1-1.7,2.7-2.8,4.5c-1.7,3-3.6,6.2-4.6,8.1c-0.4,0.8-1.8,1.4-2.7,1.1c-2-0.6-3.9-1.2-6-1.9
			c-2-0.7-3.9-1.4-5.9-2.2c-0.9-0.4-1.6-1.8-1.4-2.7c0.6-2.4,1.5-5.9,2.1-8.9c0.5-2.1,0.8-3.9,0.9-4.9c0,0,0,0,0,0
			c-0.3-0.3-0.8-0.6-1.3-0.9c-0.6-0.4-1.3-0.7-1.9-0.9c-0.3-0.1-0.2-0.2-0.3-0.2c-0.1,0,0,0.1-0.3,0.3c-1.2,1-3.1,2.8-5,4.8
			c-2,2-4,4.1-5.3,5.4c-0.6,0.6-2.1,0.8-2.9,0.4c-1.8-1.1-3.5-2.2-5.3-3.4c-1.7-1.2-3.4-2.4-5.1-3.7c-0.8-0.6-1.1-2.1-0.6-3
			c1.2-2.2,2.9-5.3,4.3-8c0.9-1.8,1.8-3.5,2.1-4.5c0,0,0,0,0,0c-0.2-0.4-0.6-0.8-1-1.2c-0.5-0.5-1.1-1-1.6-1.4
			c-0.2-0.2-0.2-0.2-0.2-0.3c-0.1,0-0.1,0.1-0.3,0.2c-1.3,0.6-3.6,1.9-6,3.3c-2.3,1.3-4.8,2.8-6.5,3.8c-0.8,0.5-2.2,0.3-2.9-0.4
			c-1.4-1.5-2.9-3-4.2-4.6c-1.4-1.6-2.7-3.2-4-4.9c-0.6-0.8-0.5-2.3,0.2-3c1.5-1.5,3.4-3.5,5.3-5.5c1.8-1.9,3.4-3.7,4.1-4.8
			c0,0,0,0,0,0c-0.1-0.4-0.4-0.9-0.7-1.4c-0.4-0.6-0.8-1.2-1.2-1.7c-0.2-0.2-0.1-0.3-0.2-0.3c-0.1,0-0.1,0.1-0.4,0.1
			c-1.5,0.3-4,0.9-6.6,1.6c-2.6,0.7-5.4,1.5-7.3,2c-0.9,0.2-2.2-0.3-2.7-1.1c-1-1.9-2-3.7-2.9-5.6c-0.9-1.9-1.8-3.8-2.6-5.7
			c-0.4-0.9,0.1-2.4,1-2.9c2.1-1.3,5.1-3.1,7.7-4.7c1.8-1.1,3.3-2.1,4.1-2.8c0,0,0,0,0,0c0-0.4-0.1-1-0.3-1.6
			c-0.2-0.7-0.5-1.4-0.7-2c-0.1-0.3,0-0.3-0.1-0.3c-0.1,0-0.1,0-0.4,0h0c-1.2-0.1-3.1-0.2-5.2-0.2c-3.2,0-6.9,0-9.2,0
			c-0.9,0-2.1-0.9-2.3-1.8c-0.5-2-1-4.1-1.4-6.2c-0.4-2-0.7-4.1-1-6.2c-0.1-1,0.7-2.3,1.7-2.5c2.1-0.6,4.8-1.4,7.3-2.1
			c2.5-0.8,4.8-1.5,5.9-2.1c0,0,0,0,0,0c0.1-0.4,0.1-1,0.1-1.6c0-0.7-0.1-1.5-0.2-2.1c0-0.3,0.1-0.3,0-0.4c0-0.1-0.1,0-0.4-0.1
			c-1.1-0.4-2.9-0.9-5-1.5c-2.9-0.8-6.5-1.7-8.8-2.3c-0.9-0.2-1.8-1.4-1.8-2.3c0-2.2,0.1-4.3,0.3-6.3c0.1-1.9,0.4-4,0.6-6.3
			c0.1-1,1.3-2,2.3-2c2.1,0,4.9-0.1,7.6-0.2c2.6-0.1,5-0.2,6.2-0.4c0,0,0,0,0,0c0.2-0.4,0.4-0.9,0.5-1.5c0.2-0.7,0.3-1.4,0.4-2.1
			c0-0.3,0.1-0.3,0.1-0.3c0-0.1-0.1,0-0.3-0.2c-1-0.7-2.6-1.7-4.4-2.7c-2.7-1.6-5.8-3.4-7.9-4.5c-0.8-0.4-1.4-1.8-1.1-2.7
			c0.6-2,1.2-4,1.9-6c0.7-2,1.5-4,2.3-5.9c0.4-0.9,1.8-1.6,2.7-1.4c2.1,0.5,4.9,1.2,7.3,1.8c2.5,0.6,4.8,1,6.1,1.2c0,0,0,0,0,0
			c0.3-0.3,0.6-0.8,0.9-1.3c0.4-0.6,0.7-1.3,0.9-1.9c0.1-0.3,0.2-0.2,0.2-0.3c0-0.1-0.1,0-0.3-0.3c-0.8-0.9-2.1-2.3-3.5-3.7
			c-2.2-2.2-4.7-4.7-6.4-6.3c-0.6-0.6-0.8-2.1-0.4-2.9c1.1-1.8,2.2-3.6,3.4-5.3c1.2-1.7,2.4-3.5,3.7-5.1c0.6-0.8,2.1-1.1,3-0.6
			c1.8,1,4.2,2.3,6.6,3.6c2.2,1.2,4.3,2.2,5.5,2.7c0,0,0,0,0,0c0.4-0.2,0.8-0.6,1.2-1c0.5-0.5,1-1.1,1.4-1.6
			c0.2-0.2,0.2-0.2,0.3-0.2c0-0.1-0.1-0.1-0.2-0.3c-0.5-1-1.4-2.6-2.4-4.5c-1.5-2.7-3.3-5.7-4.5-7.7c-0.5-0.8-0.3-2.2,0.4-2.9
			c1.5-1.5,3.1-2.9,4.7-4.3c1.6-1.4,3.2-2.7,4.9-4c0.8-0.6,2.3-0.5,3,0.2c1.4,1.4,3.3,3.2,5.4,5.2c1.9,1.7,3.6,3.3,4.6,4
			c0,0,0,0,0,0c0.4-0.1,0.9-0.4,1.4-0.7c0.6-0.4,1.2-0.8,1.7-1.2c0.2-0.2,0.3-0.1,0.3-0.2c0-0.1-0.1-0.1-0.1-0.4
			c-0.2-1.1-0.6-2.9-1.2-5c-0.8-3.1-1.7-6.4-2.3-8.6c-0.2-0.9,0.3-2.2,1.1-2.7c1.9-1.1,3.8-2.1,5.6-3c1.9-0.9,3.8-1.8,5.8-2.6
			c0.9-0.4,2.4,0.1,2.9,1c1.1,1.8,2.5,4.2,3.9,6.4c1.3,2.1,2.6,4.1,3.4,5c0,0,0,0,0,0c0.4,0,1-0.1,1.6-0.3c0.7-0.2,1.4-0.5,2-0.7
			c0.3-0.1,0.3,0,0.3-0.1c0-0.1,0-0.1,0-0.4v0c0.1-1.2,0.2-3.1,0.2-5.1c0-3.1,0-6.6,0-8.9c0-0.9,0.9-2.1,1.8-2.3
			c2-0.5,4.1-1,6.2-1.4c2-0.4,4.1-0.7,6.3-1c1-0.1,2.3,0.7,2.6,1.7c0.6,2.1,1.4,4.8,2.1,7.2c0.7,2.4,1.5,4.6,2,5.8c0,0,0,0,0,0
			c0.4,0.1,1,0.1,1.6,0.1c0.7,0,1.5-0.1,2.1-0.2c0.3,0,0.3,0.1,0.4,0c0.1,0,0-0.1,0.1-0.4c0.5-1.3,1.2-3.7,1.9-6.3
			c0.7-2.6,1.4-5.3,1.9-7.2C150.9,88.2,152.1,87.3,153,87.3L153,87.3z M168.3,104.1C168.3,104.1,168.2,104.1,168.3,104.1
			C168.3,104.2,168.3,104.2,168.3,104.1L168.3,104.1z M192.6,111.8C192.6,111.8,192.6,111.8,192.6,111.8
			C192.6,111.9,192.6,111.9,192.6,111.8L192.6,111.8z M214.1,125.5C214.1,125.5,214.1,125.5,214.1,125.5
			C214.1,125.6,214.1,125.6,214.1,125.5L214.1,125.5z M231.4,144.3C231.4,144.3,231.4,144.3,231.4,144.3
			C231.3,144.4,231.3,144.4,231.4,144.3L231.4,144.3z M243.2,167C243.2,167,243.2,166.9,243.2,167C243.1,167.1,243.1,167,243.2,167
			L243.2,167z M248.7,191.9C248.7,191.9,248.7,191.9,248.7,191.9C248.6,191.9,248.6,191.9,248.7,191.9L248.7,191.9z M247.6,217.4
			C247.6,217.4,247.6,217.4,247.6,217.4C247.5,217.4,247.5,217.4,247.6,217.4L247.6,217.4z M239.9,241.7
			C239.9,241.7,239.9,241.7,239.9,241.7C239.8,241.7,239.9,241.7,239.9,241.7L239.9,241.7z M226.2,263.2
			C226.2,263.2,226.2,263.2,226.2,263.2C226.1,263.2,226.2,263.2,226.2,263.2L226.2,263.2z M207.4,280.5
			C207.4,280.5,207.4,280.5,207.4,280.5C207.3,280.4,207.3,280.5,207.4,280.5L207.4,280.5z M184.8,292.3
			C184.8,292.3,184.8,292.3,184.8,292.3C184.7,292.2,184.7,292.2,184.8,292.3L184.8,292.3z M159.8,297.8
			C159.9,297.8,159.9,297.8,159.8,297.8C159.8,297.7,159.8,297.8,159.8,297.8L159.8,297.8z M134.3,296.7
			C134.4,296.7,134.4,296.7,134.3,296.7C134.3,296.6,134.3,296.6,134.3,296.7L134.3,296.7z M110,289C110,289,110,289,110,289
			C110,288.9,110,289,110,289L110,289z M88.5,275.3C88.5,275.3,88.5,275.3,88.5,275.3C88.5,275.2,88.5,275.3,88.5,275.3L88.5,275.3z
			 M71.2,256.5C71.3,256.5,71.3,256.5,71.2,256.5C71.3,256.4,71.3,256.5,71.2,256.5L71.2,256.5z M59.4,233.9
			C59.5,233.9,59.5,233.9,59.4,233.9C59.5,233.8,59.5,233.8,59.4,233.9L59.4,233.9z M53.9,209C53.9,209,53.9,209,53.9,209
			C54,208.9,54,208.9,53.9,209L53.9,209z M55,183.5C55,183.5,55,183.5,55,183.5C55.1,183.4,55.1,183.4,55,183.5L55,183.5z
			 M62.7,159.1C62.7,159.1,62.7,159.1,62.7,159.1C62.8,159.1,62.7,159.1,62.7,159.1L62.7,159.1z M76.4,137.6
			C76.4,137.6,76.4,137.6,76.4,137.6C76.5,137.6,76.5,137.6,76.4,137.6L76.4,137.6z M95.2,120.4C95.2,120.4,95.2,120.4,95.2,120.4
			C95.3,120.4,95.3,120.4,95.2,120.4L95.2,120.4z M117.9,108.6C117.8,108.6,117.8,108.6,117.9,108.6
			C117.9,108.6,117.9,108.6,117.9,108.6L117.9,108.6z M142.8,103C142.8,103,142.8,103,142.8,103C142.8,103.1,142.8,103.1,142.8,103
			L142.8,103z M154.8,92c-0.4,1.7-0.9,3.6-1.5,5.5c-0.7,2.6-1.4,5.1-2,6.6c-0.4,1.1-0.8,1.8-1.5,2.4c-0.7,0.6-1.5,0.8-2.7,1
			c-0.8,0.1-1.7,0.2-2.6,0.2c-1,0-2-0.1-2.9-0.3c-0.9-0.2-1.4-0.5-1.9-1c-0.5-0.5-0.8-0.9-1.1-1.7c-0.6-1.3-1.4-3.7-2.2-6.3
			c-0.6-1.8-1.1-3.7-1.6-5.3c-1.3,0.2-2.7,0.4-4,0.7c-1.4,0.3-2.8,0.6-4.1,0.9c0,2.2,0,4.8,0,7.2c0,2.3-0.1,4.3-0.2,5.4v0
			c-0.1,1.2-0.3,2-0.9,2.7c-0.6,0.8-1.3,1.2-2.4,1.7c-0.7,0.3-1.6,0.6-2.5,0.9c-1,0.3-2,0.5-2.9,0.5c-0.9,0-1.5-0.1-2.1-0.4
			c-0.6-0.3-1-0.7-1.5-1.3c-0.9-1.1-2.3-3.2-3.7-5.5c-1-1.6-2-3.2-2.9-4.7c-1.2,0.5-2.5,1.1-3.7,1.7c-1.3,0.6-2.6,1.3-3.8,1.9
			c0.6,2.1,1.3,4.7,1.9,6.9c0.5,2.1,1,4,1.2,5.3c0.2,1.1,0.2,2-0.1,2.9c-0.3,0.9-0.9,1.5-1.8,2.2c-0.6,0.5-1.4,1-2.2,1.5
			c-0.9,0.5-1.8,1-2.7,1.2h0c-0.8,0.2-1.5,0.3-2.2,0.1c-0.7-0.2-1.2-0.4-1.8-0.9c-1.2-0.9-3.1-2.5-5-4.3c-1.3-1.2-2.7-2.5-4-3.8
			c-1.1,0.9-2.1,1.7-3.1,2.6c-1.1,0.9-2.1,1.9-3.2,2.8c1.1,1.9,2.4,4.1,3.6,6.2c1,1.9,2,3.6,2.5,4.8c0.5,1.1,0.7,1.9,0.6,2.8
			c-0.1,0.9-0.5,1.7-1.2,2.6c-0.5,0.6-1.1,1.3-1.7,2c-0.7,0.7-1.5,1.4-2.3,1.8c-0.8,0.4-1.4,0.7-2.1,0.7c-0.7,0-1.2-0.1-1.9-0.4
			c-1.4-0.5-3.6-1.6-6-2.9c-1.6-0.9-3.3-1.8-4.9-2.7c-0.8,1.1-1.6,2.2-2.4,3.3c-0.8,1.1-1.6,2.3-2.3,3.5c1.5,1.5,3.4,3.4,5.1,5.1
			c1.6,1.6,3,3.1,3.7,4c0.7,0.9,1.2,1.6,1.3,2.6c0.1,0.9,0,1.7-0.5,2.8c-0.3,0.7-0.7,1.6-1.1,2.4c-0.5,0.9-1.1,1.7-1.7,2.4
			c-0.6,0.6-1.1,1-1.8,1.2c-0.7,0.2-1.2,0.2-2,0.1c-1.5-0.2-4-0.7-6.6-1.3c-1.9-0.4-3.8-0.9-5.5-1.3c-0.5,1.3-1,2.5-1.4,3.8
			c-0.5,1.3-0.9,2.6-1.3,4c1.9,1.1,4.2,2.4,6.3,3.6c2,1.2,3.7,2.2,4.7,2.9c1,0.7,1.5,1.2,1.9,2.1c0.4,0.9,0.4,1.7,0.3,2.9
			c-0.1,0.8-0.3,1.7-0.5,2.6c-0.2,1-0.6,1.9-1,2.7c-0.4,0.8-0.8,1.2-1.4,1.6c-0.6,0.4-1.1,0.5-1.9,0.6c-1.5,0.2-4.1,0.4-6.8,0.5
			c-1.9,0.1-3.9,0.1-5.7,0.2c-0.1,1.2-0.3,2.6-0.4,4c-0.1,1.4-0.2,2.8-0.2,4.2c2,0.5,4.6,1.2,7.1,1.9c2.1,0.6,4.1,1.2,5.3,1.6
			c1.1,0.4,1.8,0.8,2.4,1.5c0.6,0.7,0.8,1.5,1,2.7c0.1,0.8,0.2,1.7,0.2,2.6c0,1-0.1,2-0.3,2.9c-0.2,0.9-0.5,1.4-1,1.9
			c-0.5,0.5-0.9,0.8-1.7,1.1c-1.4,0.6-3.8,1.4-6.5,2.3c-1.9,0.6-3.8,1.1-5.5,1.6c0.2,1.3,0.4,2.6,0.7,4c0.3,1.4,0.6,2.7,0.9,4.1
			c2.2,0,4.9,0,7.4,0c2.3,0,4.4,0.1,5.6,0.2h0c1.2,0.1,2,0.3,2.7,0.9c0.8,0.6,1.2,1.3,1.7,2.4c0.3,0.7,0.6,1.6,0.9,2.5
			c0.3,1,0.5,2,0.5,2.9c0,0.9-0.1,1.5-0.4,2.1c-0.3,0.6-0.7,1-1.3,1.5c-1,0.8-2.6,1.9-4.5,3.1c-2,1.3-4.2,2.6-6.1,3.7
			c0.5,1.2,1.1,2.4,1.7,3.6c0.6,1.3,1.3,2.5,1.9,3.7c1.6-0.5,3.6-1,5.6-1.5c2.8-0.7,5.5-1.4,7-1.7c1.1-0.2,2-0.2,2.9,0.1
			c0.9,0.3,1.5,0.9,2.2,1.8c0.5,0.6,1,1.4,1.5,2.2c0.5,0.9,1,1.8,1.2,2.7v0c0.2,0.8,0.3,1.5,0.1,2.2c-0.2,0.7-0.4,1.2-0.9,1.8
			c-0.9,1.2-2.6,3.2-4.5,5.2c-1.3,1.4-2.7,2.9-3.9,4.1c0.8,1,1.7,2.1,2.6,3.1c0.9,1.1,1.8,2.1,2.8,3.1c1.4-0.8,3.2-1.9,5-2.9
			c2.4-1.4,4.9-2.7,6.4-3.4c1.1-0.5,1.9-0.7,2.8-0.6c0.9,0.1,1.7,0.5,2.6,1.2c0.6,0.5,1.3,1.1,2,1.7c0.7,0.7,1.4,1.5,1.8,2.3
			c0.4,0.8,0.7,1.4,0.7,2.1c0,0.7-0.1,1.2-0.4,1.9c-0.4,1.2-1.3,3-2.4,5c-1.1,2.1-2.3,4.4-3.4,6.3c1.1,0.8,2.2,1.6,3.3,2.3
			c1.1,0.8,2.3,1.5,3.5,2.3c1.2-1.2,2.6-2.7,4.1-4.1c2.1-2.1,4.1-4,5.3-5c0.9-0.7,1.6-1.2,2.6-1.3c0.9-0.1,1.7,0,2.8,0.5
			c0.7,0.3,1.6,0.7,2.4,1.1c0.9,0.5,1.7,1.1,2.4,1.7c0.6,0.6,1,1.1,1.2,1.8c0.2,0.7,0.2,1.2,0.1,2c-0.1,1.3-0.5,3.3-1,5.4
			c-0.5,2.3-1.1,4.9-1.7,7.1c1.2,0.5,2.5,0.9,3.8,1.4c1.3,0.4,2.6,0.9,4,1.3c1.1-2,2.5-4.4,3.8-6.6c1.2-2,2.3-3.8,3-4.8
			c0.7-1,1.2-1.5,2.1-1.9c0.9-0.4,1.7-0.4,2.9-0.3c0.8,0.1,1.7,0.3,2.6,0.5c1,0.2,1.9,0.6,2.7,1c0.8,0.4,1.2,0.8,1.6,1.4
			c0.4,0.6,0.5,1.1,0.6,1.9c0.2,1.3,0.4,3.3,0.5,5.5c0.1,2.3,0.2,5,0.2,7.3c1.2,0.1,2.5,0.2,3.9,0.3c1.4,0.1,2.8,0.2,4.2,0.2
			c0.4-1.7,1-3.7,1.5-5.6c0.8-2.8,1.5-5.5,2.1-7.1c0.4-1.1,0.8-1.8,1.5-2.4c0.7-0.6,1.5-0.8,2.7-1c0.8-0.1,1.7-0.2,2.6-0.2
			c1,0,2,0.1,2.9,0.3c0.9,0.2,1.4,0.5,1.9,1c0.5,0.5,0.8,0.9,1.1,1.7c0.6,1.4,1.5,3.9,2.3,6.6c0.6,1.9,1.2,3.9,1.6,5.5
			c1.3-0.2,2.6-0.4,3.9-0.7c1.4-0.3,2.7-0.6,4.1-0.9c0-1.7,0-3.8,0-5.8c0-3,0.1-5.8,0.2-7.4v0c0.1-1.2,0.3-2,0.9-2.7v0
			c0.6-0.8,1.3-1.2,2.4-1.7c0.7-0.3,1.6-0.6,2.5-0.9c1-0.3,2-0.5,2.9-0.5c0.9,0,1.5,0.1,2.1,0.4c0.6,0.3,1,0.7,1.5,1.3
			c1,1.2,2.4,3.4,3.9,5.8c1.1,1.7,2.1,3.4,3,4.9c1.2-0.5,2.4-1.1,3.6-1.7c1.3-0.6,2.5-1.3,3.7-1.9c-0.6-2.2-1.4-4.9-2-7.3
			c-0.6-2.2-1-4.2-1.3-5.5c-0.2-1.1-0.2-2,0.1-2.9c0.3-0.9,0.9-1.5,1.8-2.2c0.6-0.5,1.4-1,2.2-1.5c0.9-0.5,1.8-1,2.7-1.2h0
			c0.8-0.2,1.5-0.3,2.2-0.1c0.7,0.2,1.2,0.4,1.8,0.9c1,0.7,2.5,2.1,4.2,3.6c1.7,1.6,3.6,3.4,5.2,4.9c1-0.8,2-1.7,3.1-2.6v0
			c1-0.9,2.1-1.9,3.1-2.8c-1.1-1.8-2.5-4.2-3.7-6.5c-1.1-1.9-2.1-3.7-2.6-4.9c-0.5-1.1-0.7-1.9-0.6-2.8c0.1-0.9,0.5-1.7,1.2-2.6
			c0.5-0.6,1.1-1.3,1.7-2c0.7-0.7,1.5-1.4,2.3-1.8c0.8-0.4,1.4-0.7,2.1-0.7c0.7,0,1.2,0.1,1.9,0.4c1.4,0.5,3.7,1.7,6.2,3
			c1.7,0.9,3.5,1.9,5,2.7c0.8-1.1,1.6-2.2,2.3-3.3c0.8-1.2,1.6-2.4,2.3-3.5c-1.2-1.2-2.7-2.6-4.1-4.1c-2.1-2.1-4-4.1-5-5.3
			c-0.7-0.9-1.2-1.6-1.3-2.6c-0.1-0.9,0-1.7,0.5-2.8c0.3-0.7,0.7-1.6,1.1-2.4c0.5-0.9,1.1-1.7,1.7-2.4c0.6-0.6,1.1-1,1.8-1.2
			c0.7-0.2,1.2-0.2,2-0.1c1.3,0.1,3.2,0.5,5.4,1c2.3,0.5,4.8,1.1,7,1.6c0.5-1.2,0.9-2.5,1.4-3.8c0.5-1.3,0.9-2.7,1.3-4
			c-1.5-0.8-3.2-1.8-5-2.9c-2.5-1.5-4.9-2.9-6.2-3.8c-1-0.7-1.5-1.2-1.9-2.1c-0.4-0.9-0.4-1.7-0.3-2.9c0.1-0.8,0.3-1.7,0.5-2.6
			c0.2-1,0.6-1.9,1-2.7c0.4-0.8,0.8-1.2,1.4-1.6c0.6-0.4,1.1-0.5,1.9-0.6c1.3-0.2,3.3-0.4,5.4-0.5c2.3-0.1,4.9-0.2,7.1-0.2
			c0.1-1.3,0.2-2.6,0.3-4c0.1-1.4,0.2-2.8,0.2-4.2c-1.7-0.4-3.7-1-5.6-1.5c-2.7-0.7-5.3-1.5-6.9-2.1c-1.1-0.4-1.8-0.8-2.4-1.5
			c-0.6-0.7-0.8-1.5-1-2.7c-0.1-0.8-0.2-1.7-0.2-2.6c0-1,0.1-2,0.3-2.9c0.2-0.9,0.5-1.4,1-1.9c0.5-0.5,0.9-0.8,1.7-1.1
			c1.2-0.5,3-1.2,5.1-1.8c2.1-0.7,4.6-1.4,6.8-2c-0.2-1.3-0.4-2.7-0.7-4c-0.3-1.4-0.6-2.7-0.9-4.1c-1.7,0-3.8,0-5.8,0
			c-2.9,0-5.6-0.1-7.1-0.2h0c-1.2-0.1-2-0.3-2.7-0.9c-0.8-0.6-1.2-1.3-1.7-2.4c-0.3-0.7-0.6-1.6-0.9-2.5c-0.3-1-0.5-2-0.5-2.9
			c0-0.9,0.1-1.5,0.4-2.1c0.3-0.6,0.7-1,1.3-1.5c1-0.8,2.6-1.9,4.4-3.1c2-1.3,4.1-2.6,5.9-3.7c-0.5-1.2-1.1-2.4-1.7-3.6
			c-0.6-1.3-1.3-2.5-2-3.8c-1.6,0.5-3.6,1-5.5,1.5c-2.7,0.7-5.3,1.4-6.8,1.6c-1.1,0.2-2,0.2-2.9-0.1c-0.9-0.3-1.5-0.9-2.2-1.8
			c-0.5-0.6-1-1.4-1.5-2.2c-0.5-0.9-1-1.8-1.2-2.7v0c-0.2-0.8-0.3-1.5-0.1-2.2c0.2-0.7,0.4-1.2,0.9-1.8c0.7-1,2-2.5,3.5-4.1
			c1.5-1.6,3.2-3.4,4.7-5c-0.8-1-1.7-2.1-2.6-3.1c-0.9-1.1-1.9-2.1-2.9-3.2c-1.4,0.8-3.2,1.9-4.9,2.9c-2.4,1.4-4.7,2.6-6.1,3.3
			c-1.1,0.5-1.9,0.7-2.8,0.6c-0.9-0.1-1.7-0.5-2.6-1.2c-0.6-0.5-1.3-1.1-2-1.7c-0.7-0.7-1.4-1.5-1.8-2.3c-0.4-0.8-0.7-1.4-0.7-2.1
			c0-0.7,0.1-1.2,0.4-1.9c0.4-1.1,1.3-2.9,2.3-4.8c1-2,2.2-4.1,3.3-6.1c-1.1-0.8-2.2-1.6-3.3-2.3c-1.2-0.8-2.4-1.6-3.6-2.3
			c-1.2,1.2-2.6,2.7-4,4c-2,2-3.9,3.8-5,4.8c-0.9,0.7-1.6,1.2-2.6,1.3c-0.9,0.1-1.7,0-2.8-0.5c-0.7-0.3-1.6-0.7-2.4-1.1
			c-0.9-0.5-1.7-1.1-2.4-1.7c-0.6-0.6-1-1.1-1.2-1.8c-0.2-0.7-0.2-1.2-0.1-2c0.1-1.2,0.5-3.2,1-5.3c0.5-2.2,1.1-4.6,1.6-6.7
			c-1.2-0.5-2.5-0.9-3.8-1.4c-1.3-0.5-2.7-0.9-4-1.3c-0.8,1.5-1.8,3.2-2.8,4.9v0c-1.4,2.4-2.8,4.7-3.6,5.9c-0.7,1-1.2,1.5-2.1,1.9
			c-0.9,0.4-1.7,0.4-2.9,0.3c-0.8-0.1-1.7-0.3-2.6-0.5c-1-0.2-1.9-0.6-2.7-1c-0.8-0.4-1.2-0.8-1.6-1.4c-0.4-0.6-0.5-1.1-0.6-1.9
			c-0.2-1.3-0.3-3.2-0.4-5.3c-0.1-2.2-0.2-4.7-0.2-6.9c-1.3-0.1-2.6-0.2-4-0.3C157.6,92.2,156.2,92.1,154.8,92L154.8,92z"/>
		<path class="st1" d="M91.9,339.4l19.6-26.5l3.5,1.2l-0.3,33.2L111,346l0.3-10l-10.2-3.5l-5.8,8.1L91.9,339.4L91.9,339.4z
			 M103.1,329.6l8.3,2.8l0.3-9.1c0.1-2.8,0.2-5.1,0.4-6.8c-1,1.8-2.1,3.5-3.3,5.2L103.1,329.6L103.1,329.6z M126.8,349.8l2.7-31.4
			l9.7,0.8c2,0.2,3.5,0.6,4.6,1.3c1.1,0.7,1.9,1.7,2.6,3.1c0.6,1.3,0.9,2.8,0.7,4.4c-0.1,1.4-0.6,2.7-1.3,3.8s-1.7,1.9-2.9,2.6
			c1.5,0.7,2.6,1.7,3.3,3.1c0.7,1.4,1,3,0.9,4.9c-0.2,1.9-0.7,3.5-1.6,4.9c-0.9,1.4-2,2.3-3.4,2.9c-1.4,0.5-3.2,0.7-5.4,0.5
			L126.8,349.8L126.8,349.8z M131.8,331.9l5.6,0.5c1.5,0.1,2.5,0.1,3.1,0c0.9-0.2,1.6-0.7,2.2-1.3c0.5-0.7,0.9-1.6,1-2.8
			c0.1-1.1,0-2.1-0.4-2.9c-0.4-0.8-0.9-1.4-1.6-1.7c-0.7-0.4-2-0.6-3.8-0.8l-5.2-0.5L131.8,331.9L131.8,331.9z M130.6,346.4l6.4,0.6
			c1.4,0.1,2.5,0.1,3.2-0.1c1-0.3,1.8-0.8,2.4-1.6c0.6-0.8,0.9-1.8,1-3.1c0.1-1.2,0-2.2-0.5-3.1c-0.4-0.9-1-1.5-1.8-2
			c-0.8-0.5-2.1-0.7-3.8-0.9l-6-0.5L130.6,346.4L130.6,346.4z M167.6,350.6l-3.4-27.6l-8.4,1l-0.5-3.7l20.3-2.5l0.5,3.7l-8.5,1
			l3.4,27.6L167.6,350.6L167.6,350.6z M199.1,343.7l-9.5-26.1l-8,2.9l-1.3-3.5l19.2-7l1.3,3.5l-8,2.9l9.5,26.1L199.1,343.7
			L199.1,343.7z"/>
	</g>
</g>
</svg>
